an&@ cj- ;0u&8n &p@ 3qvcj)r 0u; x0z8 xh8 90ou&u. & e8u; fdi m8?do8 &x
&e xdd n0x8@
1n0ex u&.hx & ;o80s8; 0mdix fdir s&ee ?0&on&8@ & ;o80s8; xh0x & 90e
ex0u;&u. &ue&;8 xh8 5dssiu&du o0&ne d? 0 5hio5h—& du du8 e&;8 d? xh8
0nx0ovx0mn8r 0u; xh8 5n8o.fs0ur 9&xh h&e eiokn&58 0u; h&e ko0f8ovmddzr
du xh8 dxh8o@
10?x8o 0 x&s8 xh8o8 90nz8; xd90o;e ier ;d9u xh8 0&en8 d? xh8 5hio5hr 0
s0u 0u; 0 9ds0ur 5ds&u. xd m8 s0oo&8;@ fdi 98o8 xh8 9ds0u@ fdi nddz8;
ed ko8xxf 0u; &uud58ux &u fdio m80ix&?in 9h&x8 e&nz ;o8eer 0u; fdio
ndu. 9h&x8 n058 p8&nr xh0x sf h80ox ?8nx ?do fdir 0u; xh8 x80oe 50s8
&uxd sf 8f8e@
1xh8f 98o8 x80oe d? k&xfr fdiu. n0;fr xh0x h80p8u mn8ee8e 0u; &uex80;
d? ?0nn&u. ?ods sf 8f8e n&z8 xh8 8p8of;0f x80oe xh0x 98 0nn d? ie eh8;r
xh8f xiou8; &uxd x9d o0fe d? n&.hx 9h&5h en0ux8; u80o8o 0u; u80o8o xd
xh8 s0u ex0u;&u. 0x xh8 0nx0o 9&xh fdir x&nn xh8f xdi5h8; h&e mo80ex@
xh8 x9d o0fe eko0u. &u 0o5h8e n&z8 x9d o0&umd9e m8x988u s8 0u; h&s@ &
nddz8; 0ndu. xh8sr 0u; & e09 ;d9u &uxd h&e &usdex h80ox@
1xh8 dixe&;8 d? xh8 s0u fdi 98o8 s0oof&u. 90e ?0&o 8udi.h xd e88@ h8
90e u8&xh8o x0nn udo ehdox—h8 90e 0 n&xxn8 m8nd9 xh8 s&;;n8 e&48@ 0
n&.hxr 05x&p8r h&.hvek&o&x8; s0u—0mdix ?&p8v0u;v?doxf f80oe dn;r xd
nddz 0x@ h8 h0; 0 k0n8 ?058r 0u; 90e m0n; dp8o xh8 ?do8h80;r mix h0;
;0oz h0&o du xh8 o8ex d? h&e h80;@ h&e m80o; 90e eh0p8u du h&e 5h&ur
mix 90e n8x xd .od9r d? 0 ?&u8 o&5h mod9ur du h&e 5h88ze 0u; h&e ikk8o
n&k@ h&e 8f8e 98o8 mod9u xddr 0u; p8of mo&.hx- h&e ude8 exo0&.hx 0u;
h0u;eds8 0u; ;8n&50x8 8udi.h xd h0p8 ;du8 ?do 0 9ds0u’e@ h&e h0u;e xh8
e0s8@ h8 90e xodimn8; ?ods x&s8 xd x&s8 9&xh 0 ;of h05z&u. 5di.hr 0u;
9h8u h8 kix ik h&e 9h&x8 o&.hx h0u; xd h&e sdixhr h8 ehd98; xh8 o8;
e50o d? 0u dn; 9diu; 05odee xh8 m05z d? &x@ h0p8 & ;o80sx d? xh8 o&.hx
s0ul fdi zud9 m8exr s&ee ?0&on&8- 0u; fdi 50u e0f &? & 90e ;858&p8; do
udx@ o80; u8axr 9h0x & e09 m8u80xh xh8 dixe&;8—& 8uxo80x fdir o80;r 0u;
kod?&x@
1& nddz8; 0ndu. xh8 x9d o0fe d? n&.hxr 0u; & e09 ;d9u &uxd h&e &usdex
h80ox@ &x 90e mn05z 0e u&.hxr 0u; du &x 98o8 9o&xx8ur &u xh8 o8;
?n0s&u. n8xx8oe 9h&5h 0o8 xh8 h0u;9o&x&u. d? xh8 ?0nn8u 0u.8nr ‘9&xhdix
k&xf 0u; 9&xhdix o8sdoe8@ h8 h0e exo89u 9&xh s&e8of xh8 k0xhe d?
dxh8oer 0u; h8 9&nn n&p8 xd exo89 9&xh s&e8of xh8 k0xh d? xh&e 9ds0u mf
h&e e&;8@’ & o80; xh0xr 0u; xh8u xh8 o0fe d? n&.hx eh&?x8; 0u; kd&ux8;
dp8o h&e ehdin;8o- 0u; xh8o8r m8h&u; h&sr exdd; 0 ?&8u; n0i.h&u.@ 0u;
xh8 o0fe d? n&.hx eh&?x8; du58 sdo8r 0u; kd&ux8; dp8o fdio ehdin;8o-
0u; xh8o8 m8h&u; fdir exdd; 0u 0u.8n 988k&u.@ 0u; xh8 o0fe d? n&.hx
eh&?x8; ?do xh8 xh&o; x&s8r 0u; kd&ux8; exo0&.hx m8x988u fdi 0u; xh0x
s0u@ xh8f 9&;8u8; 0u; 9&;8u8;r xhoiex&u. fdi mdxh 0eiu;8or du8 ?ods xh8
dxh8o@ 0u; xh8 5n8o.fs0u nddz8; ?do xh8 s0oo&0.8ve8op&58 &u p0&u: &x
90e .du8 dix d? xh8 mddzr 0u; h8 ehix ik xh8 n80p8er 0u; kix &x ?ods
h&s &u ;8ek0&o@ 0u; & 9dz8 9&xh sf 8f8e ?inn d? x80oe 0u; sf h80ox
m80x&u.—?do & m8n&8p8 &u ;o80se@
1m8n&8p8 xddr s&ee ?0&on&8—& m8. d? fdir ?do fdio d9u e0z8r m8n&8p8 0e
& ;d@ bde8kh 0u; ;0u&8nr 0u; dxh8oe &u e5o&kxio8r m8n&8p8; &u ;o80se@
&u6i&o8 &uxd xh8 k0ex n&?8 d? xh0x s0u 9&xh xh8 e50o du h&e h0u;r
m8?do8 fdi e0f xh8 9do;e xh0x s0z8 fdi h&e s&e8o0mn8 9&?8@ & ;du’x .&p8
fdi xh&e 90ou&u. du sf 055diuxr mix du fdioe@ & h0p8 0u &ux8o8ex &u
fdio 98nnvm8&u. xh0x 9&nn n&p8 0e ndu. 0e & ;o09 mo80xh@ fdio sdxh8o’e
;0i.hx8o h0e 0 x8u;8o kn058 &u sf h80ox—?do fdio sdxh8o 90e sf ?&oexr
sf m8exr sf dunf ?o&8u;@1
xh8o8 xh8 8axo0do;&u0of n8xx8o 8u;8;r 9&xhdix e&.u0xio8 d? 0uf edox@
xh8 h0u;9o&x&u. 0??do;8; ud kodek85x d? 0 5ni8@ &x 90e xo058; du oin8;
n&u8er &u xh8 5o0sk8;r 5dup8ux&du0nr 5dkfvmddz 5h0o05x8o x85hu&50nnf
x8os8; 1es0nn h0u;@1 &x 90e ?88mn8 0u; ?0&uxr 0u; ;8?058; mf mndxer mix
h0; dxh8o9&e8 udxh&u. xd ;&ex&u.i&eh &x@
1xh0x &e udx 0u &nn&x8o0x8 n8xx8or1 e0&; s&ee h0n5dsm8r 10u; 0x xh8
e0s8 x&s8r &x &e eio8nf xdd &u5dh8o8ux xd m8 xh8 n8xx8o d? 0u 8;i50x8;
k8oedu &u xh8 h&.h8o o0uze d? n&?8@ xh8 o8?8o8u58 xd xh8 mo&;0n ;o8ee
0u; p8&nr 0u; dxh8o n&xxn8 8ako8ee&duer e88s xd kd&ux xd &x 0e xh8
kod;i5x&du d? eds8 9ds0u@ 9h0x ;d fdi xh&uzr so@ h0oxo&.hxl1
1& xh&uz ed xdd@ &x e88se xd s8 xd m8 udx dunf xh8 n8xx8o d? 0 9ds0ur
mix d? 0 9ds0u 9hde8 s&u; siex m8——1
1;8o0u.8;l1 ei..8ex8; s&ee h0n5dsm8@ 1&x exoi5z s8 &u xh0x n&.hx xdd@1
& ;&; udx 0ue98o@ 9h&n8 & 90e ek80z&u.r sf 8f8e o8ex8; du xh8 n0ex
e8ux8u58 d? xh8 n8xx8o: 1fdio sdxh8o’e ;0i.hx8o h0e 0 x8u;8o kn058 &u
sf h80ox—?do fdio sdxh8o 90e sf ?&oexr sf m8exr sf dunf ?o&8u;@1 xhde8
9do;e 0u; xh8 ;dimx 9h&5h h0; biex 8e50k8; s8 0e xd xh8 e0u&xf d? xh8
9o&x8o d? xh8 n8xx8or 05x&u. xd.8xh8o du sf s&u;r ei..8ex8; 0u &;80r
9h&5h & 90e n&x8o0nnf 0?o0&; xd 8ako8ee dk8unfr do 8p8u xd 8u5dio0.8
e85o8xnf@ & m8.0u xd ;dimx 9h8xh8o sf d9u ?05inx&8e 98o8 udx &u ;0u.8o
d? nde&u. xh8&o m0n0u58@ &x e88s8; 0nsdex n&z8 0 sduds0u&0 xd m8
xo05&u. m05z 8p8ofxh&u. exo0u.8 xh0x h0kk8u8;r 8p8ofxh&u. iu8ak85x8;
xh0x 90e e0&;r 0n90fe xd xh8 e0s8 h&;;8u edio58 0u; xh8 e0s8 e&u&ex8o
&u?ni8u58@ & o8ednp8;r xh&e x&s8r &u ;8?8u58 d? sf d9u 5dio0.8 0u; sf
d9u e8ue8r xd 5ds8 xd ud ;85&e&du xh0x kn0&u ?05x ;&; udx 90oo0uxr 0u;
xd xiou sf m05z o8ednix8nf du 8p8ofxh&u. xh0x x8skx8; s8 &u xh8 eh0k8
d? eios&e8@
1&? 98 h0p8 0uf 5h0u58 d? xo05&u. xh8 k8oedu 9hd h0e 9o&xx8u xh&er1 &
e0&;r o8xiou&u. xh8 n8xx8o xd s&ee h0n5dsm8r 1xh8o8 50u m8 ud h0os &u
e8&4&u. dio dkkdoxiu&xf xh8 sds8ux &x d??8oe@ & xh&uz 98 di.hx xd ek80z
xd xh8 .0o;8u8o 0.0&u 0mdix xh8 8n;8onf 9ds0u 9hd .0p8 h&s xh8 n8xx8or
0u; xh8u xd 5dux&ui8 dio &u6i&o&8e &u xh8 p&nn0.8@ mix ?&oex n8x s8
0ez 0 6i8ex&du@ fdi s8ux&du8; biex ud9 xh8 0nx8ou0x&p8 d? 5dueinx&u.
so@ ?0&on&8’e n8.0n 0;p&e8o xdvsdood9@ &e xh8o8 ud kdee&m&n&xf d?
5dssiu&50x&u. 9&xh h&s 80on&8ol 9hf udx xdv;0fl1
1& 50u dunf 8akn0&ur1 o8kn&8; s&ee h0n5dsm8r 1mf 8ux8o&u. &uxd 58ox0&u
k0ox&5in0oer 5duu85x8; 9&xh sf e&ex8o’e s0oo&0.8v8u.0.8s8uxr 9h&5h &
;&; udx xh&uz &x u858ee0of do ;8e&o0mn8 xd s8ux&du xd fdi xh&e sdou&u.@
du8 d? e&o k8o5&p0n .nf;8’e dmb85xe &u 5ds&u. h8o8 du sdu;0fr &e xd
?&a xh8 k8o&d; d? h&e s0oo&0.8r 9h&5h h0e h&xh8oxd m88u n8?x 6i&x8
iue8xxn8;@ h8 &e 0ua&die xh0x xh8 8p8ux ehdin; x0z8 kn058 m8?do8 xh8
8u; d? xh8 f80o@1
1;d8e s&ee ?0&on&8 zud9 d? xh0x 9&ehl1 & 0ez8; 80.8onf@
1eh8 h0e ud eiek&5&du d? &xr 0u; 0?x8o 9h0x h0e h0kk8u8;r & eh0nn udx
x0z8 xh8 o8ekdue&m&n&xf ikdu sfe8n? d? 8un&.hx8u&u. h8o@ e&o k8o5&p0n
h0e dunf s8ux&du8; h&e p&89e xd so@ ?0&on&8r 9hd h0e xdn; s8 h&se8n?
xh0x h8 &e o80;f 0u; 0ua&dier 0e n0io0’e .i0o;&0ur xd ?do90o; xh8s@
h8 h0e 9o&xx8u xd ndu;dur xd xh8 ?0s&nf edn&5&xdor so@ .&nsdo8@ so@
.&nsdo8 h0kk8ue xd m8 090f &u .n0e.d9 du mie&u8eer 0u; h8 h0e o8kn&8;
